newmtl blinn1SG
illum 4
Kd 1.00 1.00 1.00
Ka 0.00 0.00 0.00
Tf 1.00 1.00 1.00
Ni 1.00
Ks 0.50 0.50 0.50
newmtl blinn2SG
illum 4
Kd 0.00 0.00 0.00
Ka 0.00 0.00 0.00
Tf 1.00 1.00 1.00
Ni 1.00
Ks 0.50 0.50 0.50
newmtl shark_shader:blinn1SG
illum 4
Kd 0.28 0.39 0.47
Ka 0.23 0.23 0.23
Tf 1.00 1.00 1.00
Ni 1.00
Ks 0.29 0.40 0.48
